<?xml version="1.0" encoding="utf-8"?>
<!-- Generator: Adobe Illustrator 21.1.0, SVG Export Plug-In . SVG Version: 6.00 Build 0)  -->
<svg version="1.1" id="Laag_1" xmlns="http://www.w3.org/2000/svg" xmlns:xlink="http://www.w3.org/1999/xlink" x="0px" y="0px"
	 viewBox="0 0 120 160" style="enable-background:new 0 0 120 160;" xml:space="preserve">
<style type="text/css">
	.st0{fill:#FFFFFF;stroke:#DDDDDD;stroke-miterlimit:10;}
	.st1{fill:#DDDDDD;stroke:#DDDDDD;stroke-miterlimit:10;}
	.st2{fill:#7E7F83;}
</style>
<polygon class="st0" points="96,138.4 20,145.4 20,21 96,14 "/>
<rect x="20" y="21.6" class="st1" width="80" height="124.4"/>
<polygon class="st2" points="60,53.4 69.9,73.4 92,76.6 76,92.2 79.8,114.2 60,103.8 40.2,114.2 44,92.2 28,76.6 50.1,73.4 "/>
</svg>
