<?xml version="1.0" encoding="utf-8"?>
<!-- Generator: Adobe Illustrator 21.1.0, SVG Export Plug-In . SVG Version: 6.00 Build 0)  -->
<svg version="1.1" id="Laag_1" xmlns="http://www.w3.org/2000/svg" xmlns:xlink="http://www.w3.org/1999/xlink" x="0px" y="0px"
	 viewBox="0 0 800 600" style="enable-background:new 0 0 800 600;" xml:space="preserve">
<style type="text/css">
	.st0{fill:#FAFAFA;}
	.st1{fill:#FFFFFF;}
	.st2{fill:none;}
</style>
<g>
	<rect class="st0" width="800" height="600"/>
</g>
<polygon class="st1" points="75,17.4 90.5,48.8 125,53.8 100,78.1 105.9,112.6 75,96.3 44.1,112.6 50,78.1 25,53.8 59.5,48.8 "/>
<polygon class="st1" points="175,117.4 190.5,148.8 225,153.8 200,178.1 205.9,212.6 175,196.3 144.1,212.6 150,178.1 125,153.8 
	159.5,148.8 "/>
<polygon class="st1" points="375,117.4 390.5,148.8 425,153.8 400,178.1 405.9,212.6 375,196.3 344.1,212.6 350,178.1 325,153.8 
	359.5,148.8 "/>
<polygon class="st1" points="575,117.4 590.5,148.8 625,153.8 600,178.1 605.9,212.6 575,196.3 544.1,212.6 550,178.1 525,153.8 
	559.5,148.8 "/>
<polygon class="st1" points="75,217.4 90.5,248.8 125,253.8 100,278.1 105.9,312.6 75,296.3 44.1,312.6 50,278.1 25,253.8 
	59.5,248.8 "/>
<polygon class="st1" points="175,317.4 190.5,348.8 225,353.8 200,378.1 205.9,412.6 175,396.3 144.1,412.6 150,378.1 125,353.8 
	159.5,348.8 "/>
<polygon class="st1" points="375,317.4 390.5,348.8 425,353.8 400,378.1 405.9,412.6 375,396.3 344.1,412.6 350,378.1 325,353.8 
	359.5,348.8 "/>
<polygon class="st1" points="575,317.4 590.5,348.8 625,353.8 600,378.1 605.9,412.6 575,396.3 544.1,412.6 550,378.1 525,353.8 
	559.5,348.8 "/>
<polygon class="st1" points="75,417.4 90.5,448.8 125,453.8 100,478.1 105.9,512.6 75,496.3 44.1,512.6 50,478.1 25,453.8 
	59.5,448.8 "/>
<polygon class="st1" points="275,417.4 290.5,448.8 325,453.8 300,478.1 305.9,512.6 275,496.3 244.1,512.6 250,478.1 225,453.8 
	259.5,448.8 "/>
<polygon class="st1" points="475,417.4 490.5,448.8 525,453.8 500,478.1 505.9,512.6 475,496.3 444.1,512.6 450,478.1 425,453.8 
	459.5,448.8 "/>
<polygon class="st1" points="675,417.4 690.5,448.8 725,453.8 700,478.1 705.9,512.6 675,496.3 644.1,512.6 650,478.1 625,453.8 
	659.5,448.8 "/>
<polygon class="st1" points="275,217.4 290.5,248.8 325,253.8 300,278.1 305.9,312.6 275,296.3 244.1,312.6 250,278.1 225,253.8 
	259.5,248.8 "/>
<polygon class="st1" points="475,217.4 490.5,248.8 525,253.8 500,278.1 505.9,312.6 475,296.3 444.1,312.6 450,278.1 425,253.8 
	459.5,248.8 "/>
<polygon class="st1" points="675,217.4 690.5,248.8 725,253.8 700,278.1 705.9,312.6 675,296.3 644.1,312.6 650,278.1 625,253.8 
	659.5,248.8 "/>
<polygon class="st1" points="275,17.4 290.5,48.8 325,53.8 300,78.1 305.9,112.6 275,96.3 244.1,112.6 250,78.1 225,53.8 
	259.5,48.8 "/>
<polygon class="st1" points="475,17.4 490.5,48.8 525,53.8 500,78.1 505.9,112.6 475,96.3 444.1,112.6 450,78.1 425,53.8 
	459.5,48.8 "/>
<polygon class="st1" points="675,17.4 690.5,48.8 725,53.8 700,78.1 705.9,112.6 675,96.3 644.1,112.6 650,78.1 625,53.8 
	659.5,48.8 "/>
<polygon class="st1" points="25,153.8 0,150.1 0,178.1 "/>
<polygon class="st1" points="5.9,212.6 0,178.1 0,209.5 "/>
<polygon class="st1" points="5.9,412.6 0,378.1 25,353.8 0,350.1 0,409.5 "/>
<polygon class="st2" points="768,600 782,600 775,596.3 "/>
<polygon class="st2" points="168,600 182,600 175,596.3 "/>
<polygon class="st2" points="568,600 582,600 575,596.3 "/>
<polygon class="st2" points="368,600 382,600 375,596.3 "/>
<polygon class="st1" points="175,596.3 182,600 203.7,600 200,578.1 225,553.8 190.5,548.8 175,517.4 159.5,548.8 125,553.8 
	150,578.1 146.3,600 168,600 "/>
<polygon class="st1" points="375,596.3 382,600 403.7,600 400,578.1 425,553.8 390.5,548.8 375,517.4 359.5,548.8 325,553.8 
	350,578.1 346.3,600 368,600 "/>
<polygon class="st1" points="575,596.3 582,600 603.7,600 600,578.1 625,553.8 590.5,548.8 575,517.4 559.5,548.8 525,553.8 
	550,578.1 546.3,600 568,600 "/>
<polygon class="st1" points="0,578.1 25,553.8 0,550.1 0,600 3.7,600 "/>
<g>
	<polygon class="st2" points="800,178.1 800,178.1 800,178.1 	"/>
	<polygon class="st1" points="800,178.1 800,178.1 800,150.1 790.5,148.8 775,117.4 759.5,148.8 725,153.8 750,178.1 744.1,212.6 
		775,196.3 800,209.5 800,178.1 	"/>
	<polygon class="st1" points="790.5,348.8 775,317.4 759.5,348.8 725,353.8 750,378.1 744.1,412.6 775,396.3 800,409.5 800,350.1 	
		"/>
	<polygon class="st1" points="790.5,548.8 775,517.4 759.5,548.8 725,553.8 750,578.1 746.3,600 768,600 775,596.3 782,600 800,600 
		800,550.1 	"/>
</g>
</svg>
