<?xml version="1.0" encoding="utf-8"?>
<!-- Generator: Adobe Illustrator 21.0.1, SVG Export Plug-In . SVG Version: 6.00 Build 0)  -->
<svg version="1.1" id="Laag_1" xmlns="http://www.w3.org/2000/svg" xmlns:xlink="http://www.w3.org/1999/xlink" x="0px" y="0px"
	 viewBox="0 0 90 68" style="enable-background:new 0 0 90 68;" xml:space="preserve">
<style type="text/css">
	.st0{fill:#FFFFFF;stroke:#7E7F83;stroke-miterlimit:10;}
</style>
<polygon class="st0" points="8.8,54.5 78.8,54.5 81.2,11.5 11.2,11.5 "/>
<rect x="11.2" y="11.5" transform="matrix(-1 -4.485136e-11 4.485136e-11 -1 92.3584 68)" class="st0" width="70" height="45"/>
</svg>
